<?xml version="1.0" encoding="utf-8"?>
<!-- Generator: Adobe Illustrator 24.2.0, SVG Export Plug-In . SVG Version: 6.00 Build 0)  -->
<svg version="1.1" id="Capa_1" xmlns="http://www.w3.org/2000/svg" xmlns:xlink="http://www.w3.org/1999/xlink" x="0px" y="0px"
	 viewBox="0 0 746.9 106.1" style="enable-background:new 0 0 746.9 106.1;" xml:space="preserve">
<style type="text/css">
	.st0{fill:#EECEAC;}
</style>
<polygon class="st0" points="746.9,53.1 641.1,0 641.1,39.6 0,39.6 0,66.6 641.1,66.6 641.1,106.1 "/>
</svg>
