<?xml version="1.0" encoding="utf-8"?>
<!-- Generator: Adobe Illustrator 24.2.0, SVG Export Plug-In . SVG Version: 6.00 Build 0)  -->
<svg version="1.1"
	 id="Слой_1" xmlns:cc="http://creativecommons.org/ns#" xmlns:dc="http://purl.org/dc/elements/1.1/" xmlns:inkscape="http://www.inkscape.org/namespaces/inkscape" xmlns:rdf="http://www.w3.org/1999/02/22-rdf-syntax-ns#" xmlns:sodipodi="http://sodipodi.sourceforge.net/DTD/sodipodi-0.dtd" xmlns:svg="http://www.w3.org/2000/svg"
	 xmlns="http://www.w3.org/2000/svg" xmlns:xlink="http://www.w3.org/1999/xlink" x="0px" y="0px" viewBox="0 0 264 228.1"
	 style="enable-background:new 0 0 264 228.1;" xml:space="preserve">
<style type="text/css">
	.st0{fill:#D9B690;}
</style>
<g transform="translate(0,-952.36218)">
	<path class="st0" d="M93,952.4c-24.8,0-45,20.2-45,45c0,24.8,20.2,45,45,45s45-20.2,45-45S117.8,952.4,93,952.4z M195,958.4
		c-19.8,0-36,16.2-36,36c0,19.8,16.2,36,36,36s36-16.2,36-36S214.8,958.4,195,958.4z M93,964.4c18.3,0,33,14.7,33,33
		c0,18.3-14.7,33-33,33s-33-14.7-33-33S74.7,964.4,93,964.4z M195,970.4c13.3,0,24,10.7,24,24c0,13.3-10.7,24-24,24s-24-10.7-24-24
		C171,981,181.7,970.4,195,970.4z M195,1042.4c-25.6,0-48.1,7.3-60.3,20.9c-12.6-3.8-26.7-5.9-41.7-5.9c-25.1,0-47.7,5.8-64.6,15.8
		c-16.9,9.9-28.4,24.5-28.4,41.3v60c0,3.1,2.9,6,6,6h174c3.1,0,6-2.9,6-6v-39c23.8,0,41.5,0,72,0c3.1,0,6-2.9,6-6v-45
		c0-13.1-8.9-24-21.5-31S213.3,1042.4,195,1042.4L195,1042.4z M195,1054.4c16.6,0,31.4,3.7,41.6,9.5s15.4,12.9,15.4,20.5v39
		c-26.1,0-44,0-66,0v-9c0-16.8-11.5-31.3-28.4-41.3c-3.2-1.9-6.6-3.6-10.2-5.2C157.3,1060.2,174.8,1054.4,195,1054.4z M93,1069.4
		c23.1,0,43.9,5.5,58.5,14.1s22.5,19.7,22.5,30.9v54H12v-54c0-11.3,7.9-22.4,22.5-30.9C49.1,1074.9,69.9,1069.4,93,1069.4z"/>
</g>
</svg>
